…
system.time({
  write_csv(y, obis_csv)
})
#   user  system elapsed                                                                                                                                             
# 37.480  14.787  16.088

y
# before extra columns (class, AphiaID, date_mid, eventDate, depth, flags, dropped, absence):
#   A tibble: 27,101,348 × 7
#      id                decimalLongitude decimalLatitude scientificName phylum date_year
#      <chr>                        <dbl>           <dbl> <chr>          <chr>      <int>
#    1 ab2b3d73-0437-42…           -177.            0.811 Pycnochromis … Chord…      2006
#    2 d0b85b79-3763-47…           -177.            0.811 Pycnochromis … Chord…      2006
#    3 1705ac8c-4903-4b…           -177.            0.811 Pycnochromis … Chord…      2006
#    4 7960289e-ddaf-47…            132.            2.92  Gymnothorax f… Chord…      2008
#    5 8e621c79-a0fd-4a…             10.5          56.9   Dipolydora co… Annel…      2004
#    6 f959831d-2189-49…             10.5          56.9   Dipolydora co… Annel…      2004
#    7 b28e4b42-74fe-4a…           -177.            0.811 Pycnochromis … Chord…      2006
#    8 008d1ba6-a337-4d…           -177.            0.811 Pycnochromis … Chord…      2006
#    9 3e37c8c0-357a-49…           -177.            0.811 Pycnochromis … Chord…      2006
#   10 28f7e5e6-9fe8-4e…           -177.            0.790 Monotaxis gra… Chord…      2006
#   ℹ 27,101,338 more rows
#   ℹ 1 more variable: individualCount <chr>
# after:
#   A tibble: 27,101,348 × 15
#      id         phylum class scientificName AphiaID date_year date_mid eventDate decimalLongitude decimalLatitude depth individualCount flags
#      <chr>      <chr>  <chr> <chr>            <int>     <int>  <int64> <chr>                <dbl>           <dbl> <dbl> <chr>           <chr>
#    1 ab2b3d73-… Chord… Tele… Pycnochromis … 1595014      2006     1e12 2006-01-…           -177.            0.811  14   7               {}   
#    2 d0b85b79-… Chord… Tele… Pycnochromis … 1595014      2006     1e12 2006-01-…           -177.            0.811  14   4               {}   
#    3 1705ac8c-… Chord… Tele… Pycnochromis … 1595014      2006     1e12 2006-01-…           -177.            0.811  14   5               {}   
#    4 7960289e-… Chord… Tele… Gymnothorax f…  217499      2008     1e12 2008-09-…            132.            2.92   NA   1               {NO_…
#    5 8e621c79-… Annel… Poly… Dipolydora co…  131117      2004     1e12 2004-04-…             10.5          56.9    11.6 1.0             {}   
#    6 f959831d-… Annel… Poly… Dipolydora co…  131117      2004     1e12 2004-04-…             10.5          56.9    11.9 1.0             {}   
#    7 b28e4b42-… Chord… Tele… Pycnochromis … 1595014      2006     1e12 2006-01-…           -177.            0.811  14   20              {}   
#    8 008d1ba6-… Chord… Tele… Pycnochromis … 1595014      2006     1e12 2006-01-…           -177.            0.811  14   34              {}   
#    9 3e37c8c0-… Chord… Tele… Pycnochromis … 1595014      2006     1e12 2006-01-…           -177.            0.811  14   20              {}   
#   10 28f7e5e6-… Chord… Tele… Monotaxis gra…  218584      2006     1e12 2006-01-…           -177.            0.790  14   1               {}   
#   ℹ 27,101,338 more rows
#   ℹ 2 more variables: dropped <lgl>, absence <lgl>
…
table(is.na(y_sum$n_indiv))
# before na.rm=T:
#    FALSE  TRUE 
#   88,999    74
# after na.rm=T:
#    FALSE 
#   89,073
#   89,216
y_sum
# A tibble: 89,073 × 7
#    phylum     scientificName           year_min n_years year_max  n_obs     n_indiv
#    <chr>      <chr>                       <int>   <int>    <int>  <int>       <dbl>
#  1 Chordata   Fulmarus glacialis           1938      56     2021 892182    3851813 
#  2 Chordata   Uria aalge                   1966      54     2021 625780    1603709 
#  3 Chordata   Gadus morhua                 1782     102     2020 594939   35768843.
#  4 Chordata   Merlangius merlangus         1921      65     2021 493998  740174517.
#  5 Chordata   Melanogrammus aeglefinus     1913      72     2013 466065  678710462.
#  6 Chordata   Morus bassanus               1965      56     2021 461615     954192 
#  7 Chordata   Rissa tridactyla             1965      56     2021 428197    1885176 
#  8 Chordata   Clupea harengus              1757     154     2019 396647 1938019751.
#  9 Arthropoda Homarus americanus           1874      65     2014 384192    3485011.
# 10 Chordata   Limanda limanda              1927      73     2021 345898  251012411.
# ℹ 89,063 more rows
…
